Introductory example of linear regression
…
Since we’re interested in performing linear regression, we would like to assess upfront the following:

Distribution of the response variable (hopefully normal)

Relationship between repsonse and dependent variables (hopefully linear)

Correlation between explanatory variables (hopefully absent)

Once we’ve fitted the model, we can also be more sure that we haven’t made a mistake somewhere by the results matching what we see in preliminary data exploration.

# Print the first 10 rows of the data
data_raw_ad

# A tibble: 200 × 5
       X    TV radio newspaper sales
   <int> <dbl> <dbl>     <dbl> <dbl>
 1     1 230.   37.8      69.2  22.1
 2     2  44.5  39.3      45.1  10.4
 3     3  17.2  45.9      69.3   9.3
 4     4 152.   41.3      58.5  18.5
 5     5 181.   10.8      58.4  12.9
 6     6   8.7  48.9      75     7.2
 7     7  57.5  32.8      23.5  11.8
 8     8 120.   19.6      11.6  13.2
 9     9   8.6   2.1       1     4.8
10    10 200.    2.6      21.2  10.6
# ℹ 190 more rows
…
